[{
    "class": "regularBike",
    "id": "1",
    "name": "Ten",
    "description": "Mo ta",
    "brand": "Nhan hieu",
    "licence": "BKS",
    "booking": 2
}, {
    "class": "twinBike",
    "id": "1",
    "name": "Ten",
    "description": "Mo ta",
    "brand": "Nhan hieu",
    "licence": "BKS",
    "booking": 2
}]