[
    {
        "freeFeeTime": 10,
        "type": "normalPrice",
        "deposit": 500000,
        "bikeType": "eBike",
        "firstPrice": 10000.0,
        "firstDuration": 30,
        "stepPrice": 3000.0,
        "stepDuration": 15
    },
    {
        "freeFeeTime": 10,
        "type": "normalPrice",
        "deposit": 6500000,
        "bikeType": "regularBike",
        "firstPrice": 10000.0,
        "firstDuration": 30,
        "stepPrice": 3000.0,
        "stepDuration": 15
    },
    {
        "freeFeeTime": 10,
        "type": "normalPrice",
        "deposit": 700000,
        "bikeType": "twinBike",
        "firstPrice": 10000.0,
        "firstDuration": 30,
        "stepPrice": 3000.0,
        "stepDuration": 15
    },
    {
        "freeFeeTime": 10,
        "type": "hourPrice",
        "deposit": 800000,
        "bikeType": "eBike",
        "longRentPrice": 20000.0,
        "longRentDuration": 1440,
        "refundPivot": 720,
        "refundStepPrice": 10000.0,
        "refundStepDuration": 60,
        "overtimeStepPrice": 2000.0,
        "overtimeStepDuration": 15
    },
    {
        "freeFeeTime": 10,
        "type": "hourPrice",
        "deposit": 850000,
        "bikeType": "regularBike",
        "longRentPrice": 20000.0,
        "longRentDuration": 1440,
        "refundPivot": 720,
        "refundStepPrice": 10000.0,
        "refundStepDuration": 60,
        "overtimeStepPrice": 2000.0,
        "overtimeStepDuration": 15
    },
    {
        "freeFeeTime": 10,
        "type": "hourPrice",
        "deposit": 900000,
        "bikeType": "twinBike",
        "longRentPrice": 20000.0,
        "longRentDuration": 1440,
        "refundPivot": 720,
        "refundStepPrice": 10000.0,
        "refundStepDuration": 60,
        "overtimeStepPrice": 2000.0,
        "overtimeStepDuration": 15
    }
]