[ {
  "id" : "1",
  "name" : "Bãi đỗ xe Bách Khoa",
  "address" : "10 Tạ Quang Bửu, Bách Khoa, Hai Bà Trưng, Hà Nội ",
  "bikes" : [ {
    "class" : "regularBike",
    "id" : "1",
    "name" : "Xe đạp Thống Nhất",
    "description" : "Xe thống nhất",
    "brand" : "Thống Nhất",
    "licence" : "",
    "booking" : 0
  }, {
    "class" : "regularBike",
    "id" : "2",
    "name" : "Xe đạp Thống Nhất",
    "description" : "Xe thống nhất",
    "brand" : "Thống Nhất",
    "licence" : "",
    "booking" : 0
  }, {
    "class" : "regularBike",
    "id" : "3",
    "name" : "Xe đạp Thống Nhất",
    "description" : "Xe thống nhất",
    "brand" : "Thống Nhất",
    "licence" : "",
    "booking" : 0
  } ],
  "eBikes" : [ {
    "class" : "eBike",
    "id" : "1",
    "name" : "Xe đạp điện Thống Nhất",
    "description" : "Xe thống nhất chạy điện",
    "brand" : "Thống Nhất",
    "licence" : "",
    "booking" : 0
  }, {
    "class" : "eBike",
    "id" : "2",
    "name" : "Xe đạp điện Thống Nhất",
    "description" : "Xe thống nhất chạy điện",
    "brand" : "Thống Nhất",
    "licence" : "",
    "booking" : 0
  }, {
    "class" : "eBike",
    "id" : "3",
    "name" : "Xe đạp điện Thống Nhất",
    "description" : "Xe thống nhất chạy điện",
    "brand" : "Thống Nhất",
    "licence" : "",
    "booking" : 0
  } ],
  "twinBikes" : [ {
    "class" : "twinBike",
    "id" : "1",
    "name" : "Xe đạp đôi Thống Nhất",
    "description" : "Xe đôi thống nhất",
    "brand" : "Thống Nhất",
    "licence" : "",
    "booking" : 0
  }, {
    "class" : "twinBike",
    "id" : "2",
    "name" : "Xe đạp đôi Thống Nhất",
    "description" : "Xe đôi thống nhất",
    "brand" : "Thống Nhất",
    "licence" : "",
    "booking" : 0
  }, {
    "class" : "twinBike",
    "id" : "3",
    "name" : "Xe đạp đôi Thống Nhất",
    "description" : "Xe đôi thống nhất",
    "brand" : "Thống Nhất",
    "licence" : "",
    "booking" : 0
  } ],
  "numberOfEmptyDocks" : 10
}, {
  "id" : "2",
  "name" : "Bãi đỗ xe Neu",
  "address" : "185 Trần Đại Nghĩa, Đồng Tâm, Hai Bà Trưng, Hà Nội, Việt Nam ",
  "bikes" : [ {
    "class" : "regularBike",
    "id" : "1",
    "name" : "Xe đạp Thống Nhất",
    "description" : "Xe thống nhất",
    "brand" : "Thống Nhất",
    "licence" : "",
    "booking" : 0
  }, {
    "class" : "regularBike",
    "id" : "2",
    "name" : "Xe đạp Thống Nhất",
    "description" : "Xe thống nhất",
    "brand" : "Thống Nhất",
    "licence" : "",
    "booking" : 0
  }, {
    "class" : "regularBike",
    "id" : "3",
    "name" : "Xe đạp Thống Nhất",
    "description" : "Xe thống nhất",
    "brand" : "Thống Nhất",
    "licence" : "",
    "booking" : 0
  } ],
  "eBikes" : [ {
    "class" : "eBike",
    "id" : "1",
    "name" : "Xe đạp điện Thống Nhất",
    "description" : "Xe thống nhất chạy điện",
    "brand" : "Thống Nhất",
    "licence" : "",
    "booking" : 0
  }, {
    "class" : "eBike",
    "id" : "2",
    "name" : "Xe đạp điện Thống Nhất",
    "description" : "Xe thống nhất chạy điện",
    "brand" : "Thống Nhất",
    "licence" : "",
    "booking" : 0
  }, {
    "class" : "eBike",
    "id" : "3",
    "name" : "Xe đạp điện Thống Nhất",
    "description" : "Xe thống nhất chạy điện",
    "brand" : "Thống Nhất",
    "licence" : "",
    "booking" : 0
  } ],
  "twinBikes" : [ {
    "class" : "twinBike",
    "id" : "1",
    "name" : "Xe đạp đôi Thống Nhất",
    "description" : "Xe đôi thống nhất",
    "brand" : "Thống Nhất",
    "licence" : "",
    "booking" : 0
  }, {
    "class" : "twinBike",
    "id" : "2",
    "name" : "Xe đạp đôi Thống Nhất",
    "description" : "Xe đôi thống nhất",
    "brand" : "Thống Nhất",
    "licence" : "",
    "booking" : 0
  }, {
    "class" : "twinBike",
    "id" : "3",
    "name" : "Xe đạp đôi Thống Nhất",
    "description" : "Xe đôi thống nhất",
    "brand" : "Thống Nhất",
    "licence" : "",
    "booking" : 0
  } ],
  "numberOfEmptyDocks" : 15
} ]